sha256_processor_waveform.vcd
$version Generated by VerilatedVcd $end
$timescale 1ps $end
 $scope module TOP $end
  $var wire 1 '! ext_clk $end
  $var wire 1 (! test_complete $end
  $var wire 1 )! test_passed $end
  $scope module sha256_processor_tb $end
   $var wire 1 '! ext_clk $end
   $var wire 1 (! test_complete $end
   $var wire 1 )! test_passed $end
   $var wire 1 '! clk $end
   $var wire 1 # rst $end
   $var wire 1 $ start $end
   $var wire 8 % data_in [7:0] $end
   $var wire 1 & data_valid $end
   $var wire 1 ' data_last $end
   $var wire 256 ) hash_out [255:0] $end
   $var wire 1 1 done $end
   $var wire 32 *! FILE_SIZE [31:0] $end
   $var wire 32 ( i [31:0] $end
   $var wire 256 +! EXPECTED_HASH [255:0] $end
   $scope module uut $end
    $var wire 1 '! clk $end
    $var wire 1 # rst $end
    $var wire 1 $ start $end
    $var wire 8 % data_in [7:0] $end
    $var wire 1 & data_valid $end
    $var wire 1 ' data_last $end
    $var wire 256 ) hash_out [255:0] $end
    $var wire 1 1 done $end
    $var wire 32 *! BLOCK_SIZE [31:0] $end
    $var wire 512 2 block_buffer [511:0] $end
    $var wire 6 B byte_index [5:0] $end
    $var wire 1 C block_ready $end
    $var wire 3 D state [2:0] $end
    $var wire 32 3! IDLE [31:0] $end
    $var wire 32 4! LOAD [31:0] $end
    $var wire 32 5! PAD [31:0] $end
    $var wire 32 6! HASH [31:0] $end
    $var wire 32 7! DONE [31:0] $end
    $var wire 256 E core_hash_out [255:0] $end
    $var wire 1 M core_ready $end
    $var wire 1 N core_start $end
    $var wire 512 O core_block [511:0] $end
    $var wire 256 _ core_hash_init [255:0] $end
    $var wire 1 g core_use_init $end
    $var wire 1 h core_busy $end
    $var wire 256 ) hash_state [255:0] $end
    $var wire 64 i total_bits [63:0] $end
    $var wire 1 k seen_last $end
    $var wire 1 l need_length_block $end
    $var wire 6 m pad_index [5:0] $end
    $var wire 32 n i [31:0] $end
    $scope module sha_core $end
     $var wire 1 '! clk $end
     $var wire 1 # rst $end
     $var wire 1 N start $end
     $var wire 512 O block_in [511:0] $end
     $var wire 256 _ hash_init [255:0] $end
     $var wire 1 g use_init $end
     $var wire 256 E hash_out [255:0] $end
     $var wire 1 M ready $end
     $var wire 32 8! H0_INIT [31:0] $end
     $var wire 32 9! H1_INIT [31:0] $end
     $var wire 32 :! H2_INIT [31:0] $end
     $var wire 32 ;! H3_INIT [31:0] $end
     $var wire 32 <! H4_INIT [31:0] $end
     $var wire 32 =! H5_INIT [31:0] $end
     $var wire 32 >! H6_INIT [31:0] $end
     $var wire 32 ?! H7_INIT [31:0] $end
     $var wire 32 o a [31:0] $end
     $var wire 32 p b [31:0] $end
     $var wire 32 q c [31:0] $end
     $var wire 32 r d [31:0] $end
     $var wire 32 s e [31:0] $end
     $var wire 32 t f [31:0] $end
     $var wire 32 u g [31:0] $end
     $var wire 32 v h [31:0] $end
     $var wire 32 w h0 [31:0] $end
     $var wire 32 x h1 [31:0] $end
     $var wire 32 y h2 [31:0] $end
     $var wire 32 z h3 [31:0] $end
     $var wire 32 { h4 [31:0] $end
     $var wire 32 | h5 [31:0] $end
     $var wire 32 } h6 [31:0] $end
     $var wire 32 ~ h7 [31:0] $end
     $var wire 7 !! t [6:0] $end
     $var wire 7 "! msg_idx [6:0] $end
     $var wire 2 #! state [1:0] $end
     $var wire 2 @! IDLE [1:0] $end
     $var wire 2 A! PREP [1:0] $end
     $var wire 2 B! COMP [1:0] $end
     $var wire 2 C! DONE [1:0] $end
     $var wire 32 $! T1 [31:0] $end
     $var wire 32 %! T2 [31:0] $end
     $var wire 32 &! i [31:0] $end
    $upscope $end
   $upscope $end
  $upscope $end
 $upscope $end
$enddefinitions $end


#0
1#
0$
b00000000 %
0&
0'
b00000000000000000000000000000000 (
b0000000000000000000000000000000000000000000000000000000000000000000000000000000000000000000000000000000000000000000000000000000000000000000000000000000000000000000000000000000000000000000000000000000000000000000000000000000000000000000000000000000000000000 )
01
b00000000000000000000000000000000000000000000000000000000000000000000000000000000000000000000000000000000000000000000000000000000000000000000000000000000000000000000000000000000000000000000000000000000000000000000000000000000000000000000000000000000000000000000000000000000000000000000000000000000000000000000000000000000000000000000000000000000000000000000000000000000000000000000000000000000000000000000000000000000000000000000000000000000000000000000000000000000000000000000000000000000000000000000000000000000 2
b000000 B
0C
b000 D
b0000000000000000000000000000000000000000000000000000000000000000000000000000000000000000000000000000000000000000000000000000000000000000000000000000000000000000000000000000000000000000000000000000000000000000000000000000000000000000000000000000000000000000 E
0M
0N
b00000000000000000000000000000000000000000000000000000000000000000000000000000000000000000000000000000000000000000000000000000000000000000000000000000000000000000000000000000000000000000000000000000000000000000000000000000000000000000000000000000000000000000000000000000000000000000000000000000000000000000000000000000000000000000000000000000000000000000000000000000000000000000000000000000000000000000000000000000000000000000000000000000000000000000000000000000000000000000000000000000000000000000000000000000000 O
b0000000000000000000000000000000000000000000000000000000000000000000000000000000000000000000000000000000000000000000000000000000000000000000000000000000000000000000000000000000000000000000000000000000000000000000000000000000000000000000000000000000000000000 _
0g
0h
b0000000000000000000000000000000000000000000000000000000000000000 i
0k
0l
b000000 m
b00000000000000000000000000000000 n
b00000000000000000000000000000000 o
b00000000000000000000000000000000 p
b00000000000000000000000000000000 q
b00000000000000000000000000000000 r
b00000000000000000000000000000000 s
b00000000000000000000000000000000 t
b00000000000000000000000000000000 u
b00000000000000000000000000000000 v
b00000000000000000000000000000000 w
b00000000000000000000000000000000 x
b00000000000000000000000000000000 y
b00000000000000000000000000000000 z
b00000000000000000000000000000000 {
b00000000000000000000000000000000 |
b00000000000000000000000000000000 }
b00000000000000000000000000000000 ~
b0000000 !!
b0000000 "!
b00 #!
b01000010100010100010111110011000 $!
b00000000000000000000000000000000 %!
b00000000000000000000000000000000 &!
0'!
0(!
0)!
b00000000000000000000000001000000 *!
b1111111111100000010101001111111001111010111000001100101101101101110001100101110000111010111110011011011000011101010100100000100111110100001110011000010100011101101101000011110100001011101001011001100101110011001101111101111100010101010001100110100011101011 +!
b00000000000000000000000000000000 3!
b00000000000000000000000000000001 4!
b00000000000000000000000000000010 5!
b00000000000000000000000000000011 6!
b00000000000000000000000000000100 7!
b01101010000010011110011001100111 8!
b10111011011001111010111010000101 9!
b00111100011011101111001101110010 :!
b10100101010011111111010100111010 ;!
b01010001000011100101001001111111 <!
b10011011000001010110100010001100 =!
b00011111100000111101100110101011 >!
b01011011111000001100110100011001 ?!
b00 @!
b01 A!
b10 B!
b11 C!
#1
#2
#3
#4
#5
b0110101000001001111001100110011110111011011001111010111010000101001111000110111011110011011100101010010101001111111101010011101001010001000011100101001001111111100110110000010101101000100011000001111110000011110110011010101101011011111000001100110100011001 )
b01101010000010011110011001100111 w
b10111011011001111010111010000101 x
b00111100011011101111001101110010 y
b10100101010011111111010100111010 z
b01010001000011100101001001111111 {
b10011011000001010110100010001100 |
b00011111100000111101100110101011 }
b01011011111000001100110100011001 ~
b00000000000000000000000001000000 &!
1'!
#6
#7
#8
#9
#10
0'!
#11
#12
#13
#14
#15
1'!
#16
#17
#18
#19
#20
0'!
#21
#22
#23
#24
#25
1'!
#26
#27
#28
#29
#30
0'!
#31
#32
#33
#34
#35
1'!
#36
#37
#38
#39
#40
0'!
#41
#42
#43
#44
#45
1'!
#46
#47
#48
#49
#50
0'!
#51
#52
#53
#54
#55
1'!
#56
#57
#58
#59
#60
0'!
#61
#62
#63
#64
#65
0#
1'!
#66
#67
#68
#69
#70
0'!
#71
#72
#73
#74
#75
1'!
#76
#77
#78
#79
#80
0'!
#81
#82
#83
#84
#85
1$
b001 D
1'!
#86
#87
#88
#89
#90
0'!
#91
#92
#93
#94
#95
0$
1'!
#96
#97
#98
#99
#100
0'!
#101
#102
#103
#104
#105
1'!
#106
#107
#108
#109
#110
b01100001 %
1&
0'!
#111
#112
#113
#114
#115
b01100001000000000000000000000000000000000000000000000000000000000000000000000000000000000000000000000000000000000000000000000000000000000000000000000000000000000000000000000000000000000000000000000000000000000000000000000000000000000000000000000000000000000000000000000000000000000000000000000000000000000000000000000000000000000000000000000000000000000000000000000000000000000000000000000000000000000000000000000000000000000000000000000000000000000000000000000000000000000000000000000000000000000000000000000000 2
b000001 B
b0000000000000000000000000000000000000000000000000000000000001000 i
1'!
#116
#117
#118
#119
#120
0&
b00000000000000000000000000000001 (
0'!
#121
#122
#123
#124
#125
1'!
#126
#127
#128
#129
#130
1&
0'!
#131
#132
#133
#134
#135
b01100001011000010000000000000000000000000000000000000000000000000000000000000000000000000000000000000000000000000000000000000000000000000000000000000000000000000000000000000000000000000000000000000000000000000000000000000000000000000000000000000000000000000000000000000000000000000000000000000000000000000000000000000000000000000000000000000000000000000000000000000000000000000000000000000000000000000000000000000000000000000000000000000000000000000000000000000000000000000000000000000000000000000000000000000000 2
b000010 B
b0000000000000000000000000000000000000000000000000000000000010000 i
1'!
#136
#137
#138
#139
#140
0&
b00000000000000000000000000000010 (
0'!
#141
#142
#143
#144
#145
1'!
#146
#147
#148
#149
#150
1&
0'!
#151
#152
#153
#154
#155
b01100001011000010110000100000000000000000000000000000000000000000000000000000000000000000000000000000000000000000000000000000000000000000000000000000000000000000000000000000000000000000000000000000000000000000000000000000000000000000000000000000000000000000000000000000000000000000000000000000000000000000000000000000000000000000000000000000000000000000000000000000000000000000000000000000000000000000000000000000000000000000000000000000000000000000000000000000000000000000000000000000000000000000000000000000000 2
b000011 B
b0000000000000000000000000000000000000000000000000000000000011000 i
1'!
#156
#157
#158
#159
#160
0&
b00000000000000000000000000000011 (
0'!
#161
#162
#163
#164
#165
1'!
#166
#167
#168
#169
#170
1&
0'!
#171
#172
#173
#174
#175
b01100001011000010110000101100001000000000000000000000000000000000000000000000000000000000000000000000000000000000000000000000000000000000000000000000000000000000000000000000000000000000000000000000000000000000000000000000000000000000000000000000000000000000000000000000000000000000000000000000000000000000000000000000000000000000000000000000000000000000000000000000000000000000000000000000000000000000000000000000000000000000000000000000000000000000000000000000000000000000000000000000000000000000000000000000000 2
b000100 B
b0000000000000000000000000000000000000000000000000000000000100000 i
1'!
#176
#177
#178
#179
#180
0&
b00000000000000000000000000000100 (
0'!
#181
#182
#183
#184
#185
1'!
#186
#187
#188
#189
#190
1&
0'!
#191
#192
#193
#194
#195
b01100001011000010110000101100001011000010000000000000000000000000000000000000000000000000000000000000000000000000000000000000000000000000000000000000000000000000000000000000000000000000000000000000000000000000000000000000000000000000000000000000000000000000000000000000000000000000000000000000000000000000000000000000000000000000000000000000000000000000000000000000000000000000000000000000000000000000000000000000000000000000000000000000000000000000000000000000000000000000000000000000000000000000000000000000000 2
b000101 B
b0000000000000000000000000000000000000000000000000000000000101000 i
1'!
#196
#197
#198
#199
#200
0&
b00000000000000000000000000000101 (
0'!
#201
#202
#203
#204
#205
1'!
#206
#207
#208
#209
#210
1&
0'!
#211
#212
#213
#214
#215
b01100001011000010110000101100001011000010110000100000000000000000000000000000000000000000000000000000000000000000000000000000000000000000000000000000000000000000000000000000000000000000000000000000000000000000000000000000000000000000000000000000000000000000000000000000000000000000000000000000000000000000000000000000000000000000000000000000000000000000000000000000000000000000000000000000000000000000000000000000000000000000000000000000000000000000000000000000000000000000000000000000000000000000000000000000000 2
b000110 B
b0000000000000000000000000000000000000000000000000000000000110000 i
1'!
#216
#217
#218
#219
#220
0&
b00000000000000000000000000000110 (
0'!
#221
#222
#223
#224
#225
1'!
#226
#227
#228
#229
#230
1&
0'!
#231
#232
#233
#234
#235
b01100001011000010110000101100001011000010110000101100001000000000000000000000000000000000000000000000000000000000000000000000000000000000000000000000000000000000000000000000000000000000000000000000000000000000000000000000000000000000000000000000000000000000000000000000000000000000000000000000000000000000000000000000000000000000000000000000000000000000000000000000000000000000000000000000000000000000000000000000000000000000000000000000000000000000000000000000000000000000000000000000000000000000000000000000000 2
b000111 B
b0000000000000000000000000000000000000000000000000000000000111000 i
1'!
#236
#237
#238
#239
#240
0&
b00000000000000000000000000000111 (
0'!
#241
#242
#243
#244
#245
1'!
#246
#247
#248
#249
#250
1&
0'!
#251
#252
#253
#254
#255
b01100001011000010110000101100001011000010110000101100001011000010000000000000000000000000000000000000000000000000000000000000000000000000000000000000000000000000000000000000000000000000000000000000000000000000000000000000000000000000000000000000000000000000000000000000000000000000000000000000000000000000000000000000000000000000000000000000000000000000000000000000000000000000000000000000000000000000000000000000000000000000000000000000000000000000000000000000000000000000000000000000000000000000000000000000000 2
b001000 B
b0000000000000000000000000000000000000000000000000000000001000000 i
1'!
#256
#257
#258
#259
#260
0&
b00000000000000000000000000001000 (
0'!
#261
#262
#263
#264
#265
1'!
#266
#267
#268
#269
#270
1&
0'!
#271
#272
#273
#274
#275
b01100001011000010110000101100001011000010110000101100001011000010110000100000000000000000000000000000000000000000000000000000000000000000000000000000000000000000000000000000000000000000000000000000000000000000000000000000000000000000000000000000000000000000000000000000000000000000000000000000000000000000000000000000000000000000000000000000000000000000000000000000000000000000000000000000000000000000000000000000000000000000000000000000000000000000000000000000000000000000000000000000000000000000000000000000000 2
b001001 B
b0000000000000000000000000000000000000000000000000000000001001000 i
1'!
#276
#277
#278
#279
#280
0&
b00000000000000000000000000001001 (
0'!
#281
#282
#283
#284
#285
1'!
#286
#287
#288
#289
#290
1&
0'!
#291
#292
#293
#294
#295
b01100001011000010110000101100001011000010110000101100001011000010110000101100001000000000000000000000000000000000000000000000000000000000000000000000000000000000000000000000000000000000000000000000000000000000000000000000000000000000000000000000000000000000000000000000000000000000000000000000000000000000000000000000000000000000000000000000000000000000000000000000000000000000000000000000000000000000000000000000000000000000000000000000000000000000000000000000000000000000000000000000000000000000000000000000000 2
b001010 B
b0000000000000000000000000000000000000000000000000000000001010000 i
1'!
#296
#297
#298
#299
#300
0&
b00000000000000000000000000001010 (
0'!
#301
#302
#303
#304
#305
1'!
#306
#307
#308
#309
#310
1&
0'!
#311
#312
#313
#314
#315
b01100001011000010110000101100001011000010110000101100001011000010110000101100001011000010000000000000000000000000000000000000000000000000000000000000000000000000000000000000000000000000000000000000000000000000000000000000000000000000000000000000000000000000000000000000000000000000000000000000000000000000000000000000000000000000000000000000000000000000000000000000000000000000000000000000000000000000000000000000000000000000000000000000000000000000000000000000000000000000000000000000000000000000000000000000000 2
b001011 B
b0000000000000000000000000000000000000000000000000000000001011000 i
1'!
#316
#317
#318
#319
#320
0&
b00000000000000000000000000001011 (
0'!
#321
#322
#323
#324
#325
1'!
#326
#327
#328
#329
#330
1&
0'!
#331
#332
#333
#334
#335
b01100001011000010110000101100001011000010110000101100001011000010110000101100001011000010110000100000000000000000000000000000000000000000000000000000000000000000000000000000000000000000000000000000000000000000000000000000000000000000000000000000000000000000000000000000000000000000000000000000000000000000000000000000000000000000000000000000000000000000000000000000000000000000000000000000000000000000000000000000000000000000000000000000000000000000000000000000000000000000000000000000000000000000000000000000000 2
b001100 B
b0000000000000000000000000000000000000000000000000000000001100000 i
1'!
#336
#337
#338
#339
#340
0&
b00000000000000000000000000001100 (
0'!
#341
#342
#343
#344
#345
1'!
#346
#347
#348
#349
#350
1&
0'!
#351
#352
#353
#354
#355
b01100001011000010110000101100001011000010110000101100001011000010110000101100001011000010110000101100001000000000000000000000000000000000000000000000000000000000000000000000000000000000000000000000000000000000000000000000000000000000000000000000000000000000000000000000000000000000000000000000000000000000000000000000000000000000000000000000000000000000000000000000000000000000000000000000000000000000000000000000000000000000000000000000000000000000000000000000000000000000000000000000000000000000000000000000000 2
b001101 B
b0000000000000000000000000000000000000000000000000000000001101000 i
1'!
#356
#357
#358
#359
#360
0&
b00000000000000000000000000001101 (
0'!
#361
#362
#363
#364
#365
1'!
#366
#367
#368
#369
#370
1&
0'!
#371
#372
#373
#374
#375
b01100001011000010110000101100001011000010110000101100001011000010110000101100001011000010110000101100001011000010000000000000000000000000000000000000000000000000000000000000000000000000000000000000000000000000000000000000000000000000000000000000000000000000000000000000000000000000000000000000000000000000000000000000000000000000000000000000000000000000000000000000000000000000000000000000000000000000000000000000000000000000000000000000000000000000000000000000000000000000000000000000000000000000000000000000000 2
b001110 B
b0000000000000000000000000000000000000000000000000000000001110000 i
1'!
#376
#377
#378
#379
#380
0&
b00000000000000000000000000001110 (
0'!
#381
#382
#383
#384
#385
1'!
#386
#387
#388
#389
#390
1&
0'!
#391
#392
#393
#394
#395
b01100001011000010110000101100001011000010110000101100001011000010110000101100001011000010110000101100001011000010110000100000000000000000000000000000000000000000000000000000000000000000000000000000000000000000000000000000000000000000000000000000000000000000000000000000000000000000000000000000000000000000000000000000000000000000000000000000000000000000000000000000000000000000000000000000000000000000000000000000000000000000000000000000000000000000000000000000000000000000000000000000000000000000000000000000000 2
b001111 B
b0000000000000000000000000000000000000000000000000000000001111000 i
1'!
#396
#397
#398
#399
#400
0&
b00000000000000000000000000001111 (
0'!
#401
#402
#403
#404
#405
1'!
#406
#407
#408
#409
#410
1&
0'!
#411
#412
#413
#414
#415
b01100001011000010110000101100001011000010110000101100001011000010110000101100001011000010110000101100001011000010110000101100001000000000000000000000000000000000000000000000000000000000000000000000000000000000000000000000000000000000000000000000000000000000000000000000000000000000000000000000000000000000000000000000000000000000000000000000000000000000000000000000000000000000000000000000000000000000000000000000000000000000000000000000000000000000000000000000000000000000000000000000000000000000000000000000000 2
b010000 B
b0000000000000000000000000000000000000000000000000000000010000000 i
1'!
#416
#417
#418
#419
#420
0&
b00000000000000000000000000010000 (
0'!
#421
#422
#423
#424
#425
1'!
#426
#427
#428
#429
#430
1&
0'!
#431
#432
#433
#434
#435
b01100001011000010110000101100001011000010110000101100001011000010110000101100001011000010110000101100001011000010110000101100001011000010000000000000000000000000000000000000000000000000000000000000000000000000000000000000000000000000000000000000000000000000000000000000000000000000000000000000000000000000000000000000000000000000000000000000000000000000000000000000000000000000000000000000000000000000000000000000000000000000000000000000000000000000000000000000000000000000000000000000000000000000000000000000000 2
b010001 B
b0000000000000000000000000000000000000000000000000000000010001000 i
1'!
#436
#437
#438
#439
#440
0&
b00000000000000000000000000010001 (
0'!
#441
#442
#443
#444
#445
1'!
#446
#447
#448
#449
#450
1&
0'!
#451
#452
#453
#454
#455
b01100001011000010110000101100001011000010110000101100001011000010110000101100001011000010110000101100001011000010110000101100001011000010110000100000000000000000000000000000000000000000000000000000000000000000000000000000000000000000000000000000000000000000000000000000000000000000000000000000000000000000000000000000000000000000000000000000000000000000000000000000000000000000000000000000000000000000000000000000000000000000000000000000000000000000000000000000000000000000000000000000000000000000000000000000000 2
b010010 B
b0000000000000000000000000000000000000000000000000000000010010000 i
1'!
#456
#457
#458
#459
#460
0&
b00000000000000000000000000010010 (
0'!
#461
#462
#463
#464
#465
1'!
#466
#467
#468
#469
#470
1&
0'!
#471
#472
#473
#474
#475
b01100001011000010110000101100001011000010110000101100001011000010110000101100001011000010110000101100001011000010110000101100001011000010110000101100001000000000000000000000000000000000000000000000000000000000000000000000000000000000000000000000000000000000000000000000000000000000000000000000000000000000000000000000000000000000000000000000000000000000000000000000000000000000000000000000000000000000000000000000000000000000000000000000000000000000000000000000000000000000000000000000000000000000000000000000000 2
b010011 B
b0000000000000000000000000000000000000000000000000000000010011000 i
1'!
#476
#477
#478
#479
#480
0&
b00000000000000000000000000010011 (
0'!
#481
#482
#483
#484
#485
1'!
#486
#487
#488
#489
#490
1&
0'!
#491
#492
#493
#494
#495
b01100001011000010110000101100001011000010110000101100001011000010110000101100001011000010110000101100001011000010110000101100001011000010110000101100001011000010000000000000000000000000000000000000000000000000000000000000000000000000000000000000000000000000000000000000000000000000000000000000000000000000000000000000000000000000000000000000000000000000000000000000000000000000000000000000000000000000000000000000000000000000000000000000000000000000000000000000000000000000000000000000000000000000000000000000000 2
b010100 B
b0000000000000000000000000000000000000000000000000000000010100000 i
1'!
#496
#497
#498
#499
#500
0&
b00000000000000000000000000010100 (
0'!
#501
#502
#503
#504
#505
1'!
#506
#507
#508
#509
#510
1&
0'!
#511
#512
#513
#514
#515
b01100001011000010110000101100001011000010110000101100001011000010110000101100001011000010110000101100001011000010110000101100001011000010110000101100001011000010110000100000000000000000000000000000000000000000000000000000000000000000000000000000000000000000000000000000000000000000000000000000000000000000000000000000000000000000000000000000000000000000000000000000000000000000000000000000000000000000000000000000000000000000000000000000000000000000000000000000000000000000000000000000000000000000000000000000000 2
b010101 B
b0000000000000000000000000000000000000000000000000000000010101000 i
1'!
#516
#517
#518
#519
#520
0&
b00000000000000000000000000010101 (
0'!
#521
#522
#523
#524
#525
1'!
#526
#527
#528
#529
#530
1&
0'!
#531
#532
#533
#534
#535
b01100001011000010110000101100001011000010110000101100001011000010110000101100001011000010110000101100001011000010110000101100001011000010110000101100001011000010110000101100001000000000000000000000000000000000000000000000000000000000000000000000000000000000000000000000000000000000000000000000000000000000000000000000000000000000000000000000000000000000000000000000000000000000000000000000000000000000000000000000000000000000000000000000000000000000000000000000000000000000000000000000000000000000000000000000000 2
b010110 B
b0000000000000000000000000000000000000000000000000000000010110000 i
1'!
#536
#537
#538
#539
#540
0&
b00000000000000000000000000010110 (
0'!
#541
#542
#543
#544
#545
1'!
#546
#547
#548
#549
#550
1&
0'!
#551
#552
#553
#554
#555
b01100001011000010110000101100001011000010110000101100001011000010110000101100001011000010110000101100001011000010110000101100001011000010110000101100001011000010110000101100001011000010000000000000000000000000000000000000000000000000000000000000000000000000000000000000000000000000000000000000000000000000000000000000000000000000000000000000000000000000000000000000000000000000000000000000000000000000000000000000000000000000000000000000000000000000000000000000000000000000000000000000000000000000000000000000000 2
b010111 B
b0000000000000000000000000000000000000000000000000000000010111000 i
1'!
#556
#557
#558
#559
#560
0&
b00000000000000000000000000010111 (
0'!
#561
#562
#563
#564
#565
1'!
#566
#567
#568
#569
#570
1&
0'!
#571
#572
#573
#574
#575
b01100001011000010110000101100001011000010110000101100001011000010110000101100001011000010110000101100001011000010110000101100001011000010110000101100001011000010110000101100001011000010110000100000000000000000000000000000000000000000000000000000000000000000000000000000000000000000000000000000000000000000000000000000000000000000000000000000000000000000000000000000000000000000000000000000000000000000000000000000000000000000000000000000000000000000000000000000000000000000000000000000000000000000000000000000000 2
b011000 B
b0000000000000000000000000000000000000000000000000000000011000000 i
1'!
#576
#577
#578
#579
#580
0&
b00000000000000000000000000011000 (
0'!
#581
#582
#583
#584
#585
1'!
#586
#587
#588
#589
#590
1&
0'!
#591
#592
#593
#594
#595
b01100001011000010110000101100001011000010110000101100001011000010110000101100001011000010110000101100001011000010110000101100001011000010110000101100001011000010110000101100001011000010110000101100001000000000000000000000000000000000000000000000000000000000000000000000000000000000000000000000000000000000000000000000000000000000000000000000000000000000000000000000000000000000000000000000000000000000000000000000000000000000000000000000000000000000000000000000000000000000000000000000000000000000000000000000000 2
b011001 B
b0000000000000000000000000000000000000000000000000000000011001000 i
1'!
#596
#597
#598
#599
#600
0&
b00000000000000000000000000011001 (
0'!
#601
#602
#603
#604
#605
1'!
#606
#607
#608
#609
#610
1&
0'!
#611
#612
#613
#614
#615
b01100001011000010110000101100001011000010110000101100001011000010110000101100001011000010110000101100001011000010110000101100001011000010110000101100001011000010110000101100001011000010110000101100001011000010000000000000000000000000000000000000000000000000000000000000000000000000000000000000000000000000000000000000000000000000000000000000000000000000000000000000000000000000000000000000000000000000000000000000000000000000000000000000000000000000000000000000000000000000000000000000000000000000000000000000000 2
b011010 B
b0000000000000000000000000000000000000000000000000000000011010000 i
1'!
#616
#617
#618
#619
#620
0&
b00000000000000000000000000011010 (
0'!
#621
#622
#623
#624
#625
1'!
#626
#627
#628
#629
#630
1&
0'!
#631
#632
#633
#634
#635
b01100001011000010110000101100001011000010110000101100001011000010110000101100001011000010110000101100001011000010110000101100001011000010110000101100001011000010110000101100001011000010110000101100001011000010110000100000000000000000000000000000000000000000000000000000000000000000000000000000000000000000000000000000000000000000000000000000000000000000000000000000000000000000000000000000000000000000000000000000000000000000000000000000000000000000000000000000000000000000000000000000000000000000000000000000000 2
b011011 B
b0000000000000000000000000000000000000000000000000000000011011000 i
1'!
#636
#637
#638
#639
#640
0&
b00000000000000000000000000011011 (
0'!
#641
#642
#643
#644
#645
1'!
#646
#647
#648
#649
#650
1&
0'!
#651
#652
#653
#654
#655
b01100001011000010110000101100001011000010110000101100001011000010110000101100001011000010110000101100001011000010110000101100001011000010110000101100001011000010110000101100001011000010110000101100001011000010110000101100001000000000000000000000000000000000000000000000000000000000000000000000000000000000000000000000000000000000000000000000000000000000000000000000000000000000000000000000000000000000000000000000000000000000000000000000000000000000000000000000000000000000000000000000000000000000000000000000000 2
b011100 B
b0000000000000000000000000000000000000000000000000000000011100000 i
1'!
#656
#657
#658
#659
#660
0&
b00000000000000000000000000011100 (
0'!
#661
#662
#663
#664
#665
1'!
#666
#667
#668
#669
#670
1&
0'!
#671
#672
#673
#674
#675
b01100001011000010110000101100001011000010110000101100001011000010110000101100001011000010110000101100001011000010110000101100001011000010110000101100001011000010110000101100001011000010110000101100001011000010110000101100001011000010000000000000000000000000000000000000000000000000000000000000000000000000000000000000000000000000000000000000000000000000000000000000000000000000000000000000000000000000000000000000000000000000000000000000000000000000000000000000000000000000000000000000000000000000000000000000000 2
b011101 B
b0000000000000000000000000000000000000000000000000000000011101000 i
1'!
#676
#677
#678
#679
#680
0&
b00000000000000000000000000011101 (
0'!
#681
#682
#683
#684
#685
1'!
#686
#687
#688
#689
#690
1&
0'!
#691
#692
#693
#694
#695
b01100001011000010110000101100001011000010110000101100001011000010110000101100001011000010110000101100001011000010110000101100001011000010110000101100001011000010110000101100001011000010110000101100001011000010110000101100001011000010110000100000000000000000000000000000000000000000000000000000000000000000000000000000000000000000000000000000000000000000000000000000000000000000000000000000000000000000000000000000000000000000000000000000000000000000000000000000000000000000000000000000000000000000000000000000000 2
b011110 B
b0000000000000000000000000000000000000000000000000000000011110000 i
1'!
#696
#697
#698
#699
#700
0&
b00000000000000000000000000011110 (
0'!
#701
#702
#703
#704
#705
1'!
#706
#707
#708
#709
#710
1&
0'!
#711
#712
#713
#714
#715
b01100001011000010110000101100001011000010110000101100001011000010110000101100001011000010110000101100001011000010110000101100001011000010110000101100001011000010110000101100001011000010110000101100001011000010110000101100001011000010110000101100001000000000000000000000000000000000000000000000000000000000000000000000000000000000000000000000000000000000000000000000000000000000000000000000000000000000000000000000000000000000000000000000000000000000000000000000000000000000000000000000000000000000000000000000000 2
b011111 B
b0000000000000000000000000000000000000000000000000000000011111000 i
1'!
#716
#717
#718
#719
#720
0&
b00000000000000000000000000011111 (
0'!
#721
#722
#723
#724
#725
1'!
#726
#727
#728
#729
#730
1&
0'!
#731
#732
#733
#734
#735
b01100001011000010110000101100001011000010110000101100001011000010110000101100001011000010110000101100001011000010110000101100001011000010110000101100001011000010110000101100001011000010110000101100001011000010110000101100001011000010110000101100001011000010000000000000000000000000000000000000000000000000000000000000000000000000000000000000000000000000000000000000000000000000000000000000000000000000000000000000000000000000000000000000000000000000000000000000000000000000000000000000000000000000000000000000000 2
b100000 B
b0000000000000000000000000000000000000000000000000000000100000000 i
1'!
#736
#737
#738
#739
#740
0&
b00000000000000000000000000100000 (
0'!
#741
#742
#743
#744
#745
1'!
#746
#747
#748
#749
#750
1&
0'!
#751
#752
#753
#754
#755
b01100001011000010110000101100001011000010110000101100001011000010110000101100001011000010110000101100001011000010110000101100001011000010110000101100001011000010110000101100001011000010110000101100001011000010110000101100001011000010110000101100001011000010110000100000000000000000000000000000000000000000000000000000000000000000000000000000000000000000000000000000000000000000000000000000000000000000000000000000000000000000000000000000000000000000000000000000000000000000000000000000000000000000000000000000000 2
b100001 B
b0000000000000000000000000000000000000000000000000000000100001000 i
1'!
#756
#757
#758
#759
#760
0&
b00000000000000000000000000100001 (
0'!
#761
#762
#763
#764
#765
1'!
#766
#767
#768
#769
#770
1&
0'!
#771
#772
#773
#774
#775
b01100001011000010110000101100001011000010110000101100001011000010110000101100001011000010110000101100001011000010110000101100001011000010110000101100001011000010110000101100001011000010110000101100001011000010110000101100001011000010110000101100001011000010110000101100001000000000000000000000000000000000000000000000000000000000000000000000000000000000000000000000000000000000000000000000000000000000000000000000000000000000000000000000000000000000000000000000000000000000000000000000000000000000000000000000000 2
b100010 B
b0000000000000000000000000000000000000000000000000000000100010000 i
1'!
#776
#777
#778
#779
#780
0&
b00000000000000000000000000100010 (
0'!
#781
#782
#783
#784
#785
1'!
#786
#787
#788
#789
#790
1&
0'!
#791
#792
#793
#794
#795
b01100001011000010110000101100001011000010110000101100001011000010110000101100001011000010110000101100001011000010110000101100001011000010110000101100001011000010110000101100001011000010110000101100001011000010110000101100001011000010110000101100001011000010110000101100001011000010000000000000000000000000000000000000000000000000000000000000000000000000000000000000000000000000000000000000000000000000000000000000000000000000000000000000000000000000000000000000000000000000000000000000000000000000000000000000000 2
b100011 B
b0000000000000000000000000000000000000000000000000000000100011000 i
1'!
#796
#797
#798
#799
#800
0&
b00000000000000000000000000100011 (
0'!
#801
#802
#803
#804
#805
1'!
#806
#807
#808
#809
#810
1&
0'!
#811
#812
#813
#814
#815
b01100001011000010110000101100001011000010110000101100001011000010110000101100001011000010110000101100001011000010110000101100001011000010110000101100001011000010110000101100001011000010110000101100001011000010110000101100001011000010110000101100001011000010110000101100001011000010110000100000000000000000000000000000000000000000000000000000000000000000000000000000000000000000000000000000000000000000000000000000000000000000000000000000000000000000000000000000000000000000000000000000000000000000000000000000000 2
b100100 B
b0000000000000000000000000000000000000000000000000000000100100000 i
1'!
#816
#817
#818
#819
#820
0&
b00000000000000000000000000100100 (
0'!
#821
#822
#823
#824
#825
1'!
#826
#827
#828
#829
#830
1&
0'!
#831
#832
#833
#834
