sha256_1kb_fixed_waveform.vcd
$version Generated by VerilatedVcd $end
$timescale 1ps $end
 $scope module TOP $end
  $var wire 1 M# clk $end
  $var wire 1 N# rst $end
  $var wire 1 O# start $end
  $var wire 8192 P# data_in [8191:0] $end
  $var wire 256 6& hash_out [255:0] $end
  $var wire 1 >& done $end
  $scope module sha256_1kb_processor_fixed $end
   $var wire 1 M# clk $end
   $var wire 1 N# rst $end
   $var wire 1 O# start $end
   $var wire 8192 P# data_in [8191:0] $end
   $var wire 256 6& hash_out [255:0] $end
   $var wire 1 >& done $end
   $var wire 3 # state [2:0] $end
   $var wire 3 ?& IDLE [2:0] $end
   $var wire 3 @& PROCESSING [2:0] $end
   $var wire 3 A& WAITING [2:0] $end
   $var wire 3 B& DONE_STATE [2:0] $end
   $var wire 5 $ block_count [4:0] $end
   $var wire 1 % core_start $end
   $var wire 512 & core_block_in [511:0] $end
   $var wire 256 6 core_hash_out [255:0] $end
   $var wire 1 > core_ready $end
   $var wire 8704 ? padded_data [8703:0] $end
   $var wire 1 5# core_start_delayed $end
   $var wire 32 6# i [31:0] $end
   $scope module core_inst $end
    $var wire 1 M# clk $end
    $var wire 1 N# rst $end
    $var wire 1 5# start $end
    $var wire 512 & block_in [511:0] $end
    $var wire 1 7# init_hash $end
    $var wire 256 6 hash_out [255:0] $end
    $var wire 1 > ready $end
    $var wire 32 C& H0_INIT [31:0] $end
    $var wire 32 D& H1_INIT [31:0] $end
    $var wire 32 E& H2_INIT [31:0] $end
    $var wire 32 F& H3_INIT [31:0] $end
    $var wire 32 G& H4_INIT [31:0] $end
    $var wire 32 H& H5_INIT [31:0] $end
    $var wire 32 I& H6_INIT [31:0] $end
    $var wire 32 J& H7_INIT [31:0] $end
    $var wire 32 8# a [31:0] $end
    $var wire 32 9# b [31:0] $end
    $var wire 32 :# c [31:0] $end
    $var wire 32 ;# d [31:0] $end
    $var wire 32 <# e [31:0] $end
    $var wire 32 =# f [31:0] $end
    $var wire 32 ># g [31:0] $end
    $var wire 32 ?# h [31:0] $end
    $var wire 32 @# h0 [31:0] $end
    $var wire 32 A# h1 [31:0] $end
    $var wire 32 B# h2 [31:0] $end
    $var wire 32 C# h3 [31:0] $end
    $var wire 32 D# h4 [31:0] $end
    $var wire 32 E# h5 [31:0] $end
    $var wire 32 F# h6 [31:0] $end
    $var wire 32 G# h7 [31:0] $end
    $var wire 7 H# t [6:0] $end
    $var wire 2 I# state [1:0] $end
    $var wire 2 K& IDLE [1:0] $end
    $var wire 2 L& PREP [1:0] $end
    $var wire 2 M& COMP [1:0] $end
    $var wire 2 N& DONE [1:0] $end
    $var wire 32 J# T1 [31:0] $end
    $var wire 32 K# T2 [31:0] $end
    $var wire 32 L# i [31:0] $end
   $upscope $end
  $upscope $end
 $upscope $end
$enddefinitions $end


#0
b000 #
b00000 $
0%
b00000000000000000000000000000000000000000000000000000000000000000000000000000000000000000000000000000000000000000000000000000000000000000000000000000000000000000000000000000000000000000000000000000000000000000000000000000000000000000000000000000000000000000000000000000000000000000000000000000000000000000000000000000000000000000000000000000000000000000000000000000000000000000000000000000000000000000000000000000000000000000000000000000000000000000000000000000000000000000000000000000000000000000000000000000000 &
b0000000000000000000000000000000000000000000000000000000000000000000000000000000000000000000000000000000000000000000000000000000000000000000000000000000000000000000000000000000000000000000000000000000000000000000000000000000000000000000000000000000000000000 6
0>
b0000000000000000000000000000000000000000000000000000000000000000000000000000000000000000000000000000000000000000000000000000000000000000000000000000000000000000000000000000000000000000000000000000000000000000000000000000000000000000000000000000000000000000000000000000000000000000000000000000000000000000000000000000000000000000000000000000000000000000000000000000000000000000000000000000000000000000000000000000000000000000000000000000000000000000000000000000000000000000000000000000000000000000000000000000000000000000000000000000000000000000000000000000000000000000000000000000000000000000000000000000000000000000000000000000000000000000000000000000000000000000000000000000000000000000000000000000000000000000000000000000000000000000000000000000000000000000000000000000000000000000000000000000000000000000000000000000000000000000000000000000000000000000000000000000000000000000000000000000000000000000000000000000000000000000000000000000000000000000000000000000000000000000000000000000000000000000000000000000000000000000000000000000000000000000000000000000000000000000000000000000000000000000000000000000000000000000000000000000000000000000000000000000000000000000000000000000000000000000000000000000000000000000000000000000000000000000000000000000000000000000000000000000000000000000000000000000000000000000000000000000000000000000000000000000000000000000000000000000000000000000000000000000000000000000000000000000000000000000000000000000000000000000000000000000000000000000000000000000000000000000000000000000000000000000000000000000000000000000000000000000000000000000000000000000000000000000000000000000000000000000000000000000000000000000000000000000000000000000000000000000000000000000000000000000000000000000000000000000000000000000000000000000000000000000000000000000000000000000000000000000000000000000000000000000000000000000000000000000000000000000000000000000000000000000000000000000000000000000000000000000000000000000000000000000000000000000000000000000000000000000000000000000000000000000000000000000000000000000000000000000000000000000000000000000000000000000000000000000000000000000000000000000000000000000000000000000000000000000000000000000000000000000000000000000000000000000000000000000000000000000000000000000000000000000000000000000000000000000000000000000000000000000000000000000000000000000000000000000000000000000000000000000000000000000000000000000000000000000000000000000000000000000000000000000000000000000000000000000000000000000000000000000000000000000000000000000000000000000000000000000000000000000000000000000000000000000000000000000000000000000000000000000000000000000000000000000000000000000000000000000000000000000000000000000000000000000000000000000000000000000000000000000000000000000000000000000000000000000000000000000000000000000000000000000000000000000000000000000000000000000000000000000000000000000000000000000000000000000000000000000000000000000000000000000000000000000000000000000000000000000000000000000000000000000000000000000000000000000000000000000000000000000000000000000000000000000000000000000000000000000000000000000000000000000000000000000000000000000000000000000000000000000000000000000000000000000000000000000000000000000000000000000000000000000000000000000000000000000000000000000000000000000000000000000000000000000000000000000000000000000000000000000000000000000000000000000000000000000000000000000000000000000000000000000000000000000000000000000000000000000000000000000000000000000000000000000000000000000000000000000000000000000000000000000000000000000000000000000000000000000000000000000000000000000000000000000000000000000000000000000000000000000000000000000000000000000000000000000000000000000000000000000000000000000000000000000000000000000000000000000000000000000000000000000000000000000000000000000000000000000000000000000000000000000000000000000000000000000000000000000000000000000000000000000000000000000000000000000000000000000000000000000000000000000000000000000000000000000000000000000000000000000000000000000000000000000000000000000000000000000000000000000000000000000000000000000000000000000000000000000000000000000000000000000000000000000000000000000000000000000000000000000000000000000000000000000000000000000000000000000000000000000000000000000000000000000000000000000000000000000000000000000000000000000000000000000000000000000000000000000000000000000000000000000000000000000000000000000000000000000000000000000000000000000000000000000000000000000000000000000000000000000000000000000000000000000000000000000000000000000000000000000000000000000000000000000000000000000000000000000000000000000000000000000000000000000000000000000000000000000000000000000000000000000000000000000000000000000000000000000000000000000000000000000000000000000000000000000000000000000000000000000000000000000000000000000000000000000000000000000000000000000000000000000000000000000000000000000000000000000000000000000000000000000000000000000000000000000000000000000000000000000000000000000000000000000000000000000000000000000000000000000000000000000000000000000000000000000000000000000000000000000000000000000000000000000000000000000000000000000000000000000000000000000000000000000000000000000000000000000000000000000000000000000000000000000000000000000000000000000000000000000000000000000000000000000000000000000000000000000000000000000000000000000000000000000000000000000000000000000000000000000000000000000000000000000000000000000000000000000000000000000000000000000000000000000000000000000000000000000000000000000000000000000000000000000000000000000000000000000000000000000000000000000000000000000000000000000000000000000000000000000000000000000000000000000000000000000000000000000000000000000000000000000000000000000000000000000000000000000000000000000000000000000000000000000000000000000000000000000000000000000000000000000000000000000000000000000000000000000000000000000000000000000000000000000000000000000000000000000000000000000000000000000000000000000000000000000000000000000000000000000000000000000000000000000000000000000000000000000000000000000000000000000000000000000000000000000000000000000000000000000000000000000000000000000000000000000000000000000000000000000000000000000000000000000000000000000000000000000000000000000000000000000000000000000000000000000000000000000000000000000000000000000000000000000000000000000000000000000000000000000000000000000000000000000000000000000000000000000000000000000000000000000000000000000000000000000000000000000000000000000000000000000000000000000000000000000000000000000000000000000000000000000000000000000000000000000000000000000000000000000000000000000000000000000000000000000000000000000000000000000000000000000000000000000000000000000000000000000000000000000000000000000000000000000000000000000000000000000000000000000000000000000000000000000000000000000000000000000000000000000000000000000000000000000000000000000000000000000000000000000000000000000000000000000000000000000000000000000000000000000000000000000000000000000000000000000000000000000000000000000000000000000000000000000000000000000000000000000000000000000000000000000000000000000000000000000000000000000000000000000000000000000000000000000000000000000000000000000000000000000000000000000000000000000000000000000000000000000000000000000000000000000000000000000000000000000000000000000000000000000000000000000000000000000000000000000000000000000000000000000000000000000000000000000000000000000000000000000000000000000000000000000000000000000000000000000000000000000000000000000000000000000000000000000000000000000000000000000000000000000000000000000000000000000000000000000000000000000000000000000000000000000000000000000000000000000000000000000000000000000000000000000000000000000000000000000000000000000000000000000000000000000000000000000000000000000000000000000000000000000000000000000000000000000000000000000000000000000000000000000000000000000000000000000000000000000000000000000000000000000000000000000000000000000000000000000000000000000000000000000000000000000000000000000000000000000000000000000000000000000000000000000000000000000000000000000000000000000000000000000000000000000000000000000000000000000000000000000000000000000000000000000000000000000000000000000000000000000000000000000000000000000000000000000000000000000000000000000000000000000000000000000000000000000000000000000000000000000000000000000000000000000000000000000000000000000000000000000000000000000000000000000000000000000000000000000000000000000000000000000000000000000000000000000000000000000000000000000000000000000000000000000000000000000000000000000000000000000000000000000000000000000000000000000000000000000000000000000000000000000000000000000000000000000000000000000000000000000000000000000000000000000000000000000000000000000000000000000 ?
05#
b00000000000000000000000000000000 6#
17#
b00000000000000000000000000000000 8#
b00000000000000000000000000000000 9#
b00000000000000000000000000000000 :#
b00000000000000000000000000000000 ;#
b00000000000000000000000000000000 <#
b00000000000000000000000000000000 =#
b00000000000000000000000000000000 >#
b00000000000000000000000000000000 ?#
b00000000000000000000000000000000 @#
b00000000000000000000000000000000 A#
b00000000000000000000000000000000 B#
b00000000000000000000000000000000 C#
b00000000000000000000000000000000 D#
b00000000000000000000000000000000 E#
b00000000000000000000000000000000 F#
b00000000000000000000000000000000 G#
b0000000 H#
b00 I#
b00011001101001001100000100010110 J#
b00000000000000000000000000000000 K#
b00000000000000000000000000000000 L#
1M#
1N#
0O#
b00000000000000010000001000000011000001000000010100000110000001110000100000001001000010100000101100001100000011010000111000001111000100000001000100010010000100110001010000010101000101100001011100011000000110010001101000011011000111000001110100011110000111110010000000100001001000100010001100100100001001010010011000100111001010000010100100101010001010110010110000101101001011100010111100110000001100010011001000110011001101000011010100110110001101110011100000111001001110100011101100111100001111010011111000111111010000000100000101000010010000110100010001000101010001100100011101001000010010010100101001001011010011000100110101001110010011110101000001010001010100100101001101010100010101010101011001010111010110000101100101011010010110110101110001011101010111100101111101100000011000010110001001100011011001000110010101100110011001110110100001101001011010100110101101101100011011010110111001101111011100000111000101110010011100110111010001110101011101100111011101111000011110010111101001111011011111000111110101111110011111111000000010000001100000101000001110000100100001011000011010000111100010001000100110001010100010111000110010001101100011101000111110010000100100011001001010010011100101001001010110010110100101111001100010011001100110101001101110011100100111011001111010011111101000001010000110100010101000111010010010100101101001101010011110101000101010011010101010101011101011001010110110101110101011111011000010110001101100101011001110110100101101011011011010110111101110001011100110111010101110111011110010111101101111101011111111000000110000011100001011000011110001001100010111000110110001111100100011001001110010101100101111001100110011011100111011001111110100001101000111010010110100111101010011010101110101101101011111011000110110011101101011011011110111001101110111011110110111111110000011100001111000101110001111100100111001011110011011100111111010001110100111101010111010111110110011101101111011101110111111110000111100011111001011110011111101001111010111110110111101111111100011111001111110101111101111111100111111011111111011111111000000000000000100000010000000110000010000000101000001100000011100001000000010010000101000001011000011000000110100001110000011110001000000010001000100100001001100010100000101010001011000010111000110000001100100011010000110110001110000011101000111100001111100100000001000010010001000100011001001000010010100100110001001110010100000101001001010100010101100101100001011010010111000101111001100000011000100110010001100110011010000110101001101100011011100111000001110010011101000111011001111000011110100111110001111110100000001000001010000100100001101000100010001010100011001000111010010000100100101001010010010110100110001001101010011100100111101010000010100010101001001010011010101000101010101010110010101110101100001011001010110100101101101011100010111010101111001011111011000000110000101100010011000110110010001100101011001100110011101101000011010010110101001101011011011000110110101101110011011110111000001110001011100100111001101110100011101010111011001110111011110000111100101111010011110110111110001111101011111100111111110000000100000011000001010000011100001001000010110000110100001111000100010001001100010101000101110001100100011011000111010001111100100001001000110010010100100111001010010010101100101101001011110011000100110011001101010011011100111001001110110011110100111111010000010100001101000101010001110100100101001011010011010100111101010001010100110101010101010111010110010101101101011101010111110110000101100011011001010110011101101001011010110110110101101111011100010111001101110101011101110111100101111011011111010111111110000001100000111000010110000111100010011000101110001101100011111001000110010011100101011001011110011001100110111001110110011111101000011010001110100101101001111010100110101011101011011010111110110001101100111011010110110111101110011011101110111101101111111100000111000011110001011100011111001001110010111100110111001111110100011101001111010101110101111101100111011011110111011101111111100001111000111110010111100111111010011110101111101101111011111111000111110011111101011111011111111001111110111111110111111110000000000000001000000100000001100000100000001010000011000000111000010000000100100001010000010110000110000001101000011100000111100010000000100010001001000010011000101000001010100010110000101110001100000011001000110100001101100011100000111010001111000011111001000000010000100100010001000110010010000100101001001100010011100101000001010010010101000101011001011000010110100101110001011110011000000110001001100100011001100110100001101010011011000110111001110000011100100111010001110110011110000111101001111100011111101000000010000010100001001000011010001000100010101000110010001110100100001001001010010100100101101001100010011010100111001001111010100000101000101010010010100110101010001010101010101100101011101011000010110010101101001011011010111000101110101011110010111110110000001100001011000100110001101100100011001010110011001100111011010000110100101101010011010110110110001101101011011100110111101110000011100010111001001110011011101000111010101110110011101110111100001111001011110100111101101111100011111010111111001111111100000001000000110000010100000111000010010000101100001101000011110001000100010011000101010001011100011001000110110001110100011111001000010010001100100101001001110010100100101011001011010010111100110001001100110011010100110111001110010011101100111101001111110100000101000011010001010100011101001001010010110100110101001111010100010101001101010101010101110101100101011011010111010101111101100001011000110110010101100111011010010110101101101101011011110111000101110011011101010111011101111001011110110111110101111111100000011000001110000101100001111000100110001011100011011000111110010001100100111001010110010111100110011001101110011101100111111010000110100011101001011010011110101001101010111010110110101111101100011011001110110101101101111011100110111011101111011011111111000001110000111100010111000111110010011100101111001101110011111101000111010011110101011101011111011001110110111101110111011111111000011110001111100101111001111110100111101011111011011110111111110001111100111111010111110111111110011111101111111101111111100000000000000010000001000000011000001000000010100000110000001110000100000001001000010100000101100001100000011010000111000001111000100000001000100010010000100110001010000010101000101100001011100011000000110010001101000011011000111000001110100011110000111110010000000100001001000100010001100100100001001010010011000100111001010000010100100101010001010110010110000101101001011100010111100110000001100010011001000110011001101000011010100110110001101110011100000111001001110100011101100111100001111010011111000111111010000000100000101000010010000110100010001000101010001100100011101001000010010010100101001001011010011000100110101001110010011110101000001010001010100100101001101010100010101010101011001010111010110000101100101011010010110110101110001011101010111100101111101100000011000010110001001100011011001000110010101100110011001110110100001101001011010100110101101101100011011010110111001101111011100000111000101110010011100110111010001110101011101100111011101111000011110010111101001111011011111000111110101111110011111111000000010000001100000101000001110000100100001011000011010000111100010001000100110001010100010111000110010001101100011101000111110010000100100011001001010010011100101001001010110010110100101111001100010011001100110101001101110011100100111011001111010011111101000001010000110100010101000111010010010100101101001101010011110101000101010011010101010101011101011001010110110101110101011111011000010110001101100101011001110110100101101011011011010110111101110001011100110111010101110111011110010111101101111101011111111000000110000011100001011000011110001001100010111000110110001111100100011001001110010101100101111001100110011011100111011001111110100001101000111010010110100111101010011010101110101101101011111011000110110011101101011011011110111001101110111011110110111111110000011100001111000101110001111100100111001011110011011100111111010001110100111101010111010111110110011101101111011101110111111110000111100011111001011110011111101001111010111110110111101111111100011111001111110101111101111111100111111011111111011111111 P#
b0000000000000000000000000000000000000000000000000000000000000000000000000000000000000000000000000000000000000000000000000000000000000000000000000000000000000000000000000000000000000000000000000000000000000000000000000000000000000000000000000000000000000000 6&
0>&
b000 ?&
b001 @&
b010 A&
b011 B&
b01101010000010011110011001100111 C&
b10111011011001111010111010000101 D&
b00111100011011101111001101110010 E&
b10100101010011111111010100111010 F&
b01010001000011100101001001111111 G&
b10011011000001010110100010001100 H&
b00011111100000111101100110101011 I&
b01011011111000001100110100011001 J&
b00 K&
b01 L&
b10 M&
b11 N&
#1
0M#
#2
1>
b01101010000010011110011001100111 @#
b10111011011001111010111010000101 A#
b00111100011011101111001101110010 B#
b10100101010011111111010100111010 C#
b01010001000011100101001001111111 D#
b10011011000001010110100010001100 E#
b00011111100000111101100110101011 F#
b01011011111000001100110100011001 G#
b00000000000000000000000001000000 L#
1M#
#3
0M#
#4
1M#
#5
0M#
#6
1M#
#7
0M#
#8
1M#
0N#
#9
0M#
#10
1M#
#11
0M#
#12
1M#
#13
0M#
#14
1M#
#15
0M#
#16
1M#
#17
0M#
#18
b001 #
b0000000000000001000000100000001100000100000001010000011000000111000010000000100100001010000010110000110000001101000011100000111100010000000100010001001000010011000101000001010100010110000101110001100000011001000110100001101100011100000111010001111000011111001000000010000100100010001000110010010000100101001001100010011100101000001010010010101000101011001011000010110100101110001011110011000000110001001100100011001100110100001101010011011000110111001110000011100100111010001110110011110000111101001111100011111101000000010000010100001001000011010001000100010101000110010001110100100001001001010010100100101101001100010011010100111001001111010100000101000101010010010100110101010001010101010101100101011101011000010110010101101001011011010111000101110101011110010111110110000001100001011000100110001101100100011001010110011001100111011010000110100101101010011010110110110001101101011011100110111101110000011100010111001001110011011101000111010101110110011101110111100001111001011110100111101101111100011111010111111001111111100000001000000110000010100000111000010010000101100001101000011110001000100010011000101010001011100011001000110110001110100011111001000010010001100100101001001110010100100101011001011010010111100110001001100110011010100110111001110010011101100111101001111110100000101000011010001010100011101001001010010110100110101001111010100010101001101010101010101110101100101011011010111010101111101100001011000110110010101100111011010010110101101101101011011110111000101110011011101010111011101111001011110110111110101111111100000011000001110000101100001111000100110001011100011011000111110010001100100111001010110010111100110011001101110011101100111111010000110100011101001011010011110101001101010111010110110101111101100011011001110110101101101111011100110111011101111011011111111000001110000111100010111000111110010011100101111001101110011111101000111010011110101011101011111011001110110111101110111011111111000011110001111100101111001111110100111101011111011011110111111110001111100111111010111110111111110011111101111111101111111100000000000000010000001000000011000001000000010100000110000001110000100000001001000010100000101100001100000011010000111000001111000100000001000100010010000100110001010000010101000101100001011100011000000110010001101000011011000111000001110100011110000111110010000000100001001000100010001100100100001001010010011000100111001010000010100100101010001010110010110000101101001011100010111100110000001100010011001000110011001101000011010100110110001101110011100000111001001110100011101100111100001111010011111000111111010000000100000101000010010000110100010001000101010001100100011101001000010010010100101001001011010011000100110101001110010011110101000001010001010100100101001101010100010101010101011001010111010110000101100101011010010110110101110001011101010111100101111101100000011000010110001001100011011001000110010101100110011001110110100001101001011010100110101101101100011011010110111001101111011100000111000101110010011100110111010001110101011101100111011101111000011110010111101001111011011111000111110101111110011111111000000010000001100000101000001110000100100001011000011010000111100010001000100110001010100010111000110010001101100011101000111110010000100100011001001010010011100101001001010110010110100101111001100010011001100110101001101110011100100111011001111010011111101000001010000110100010101000111010010010100101101001101010011110101000101010011010101010101011101011001010110110101110101011111011000010110001101100101011001110110100101101011011011010110111101110001011100110111010101110111011110010111101101111101011111111000000110000011100001011000011110001001100010111000110110001111100100011001001110010101100101111001100110011011100111011001111110100001101000111010010110100111101010011010101110101101101011111011000110110011101101011011011110111001101110111011110110111111110000011100001111000101110001111100100111001011110011011100111111010001110100111101010111010111110110011101101111011101110111111110000111100011111001011110011111101001111010111110110111101111111100011111001111110101111101111111100111111011111111011111111000000000000000100000010000000110000010000000101000001100000011100001000000010010000101000001011000011000000110100001110000011110001000000010001000100100001001100010100000101010001011000010111000110000001100100011010000110110001110000011101000111100001111100100000001000010010001000100011001001000010010100100110001001110010100000101001001010100010101100101100001011010010111000101111001100000011000100110010001100110011010000110101001101100011011100111000001110010011101000111011001111000011110100111110001111110100000001000001010000100100001101000100010001010100011001000111010010000100100101001010010010110100110001001101010011100100111101010000010100010101001001010011010101000101010101010110010101110101100001011001010110100101101101011100010111010101111001011111011000000110000101100010011000110110010001100101011001100110011101101000011010010110101001101011011011000110110101101110011011110111000001110001011100100111001101110100011101010111011001110111011110000111100101111010011110110111110001111101011111100111111110000000100000011000001010000011100001001000010110000110100001111000100010001001100010101000101110001100100011011000111010001111100100001001000110010010100100111001010010010101100101101001011110011000100110011001101010011011100111001001110110011110100111111010000010100001101000101010001110100100101001011010011010100111101010001010100110101010101010111010110010101101101011101010111110110000101100011011001010110011101101001011010110110110101101111011100010111001101110101011101110111100101111011011111010111111110000001100000111000010110000111100010011000101110001101100011111001000110010011100101011001011110011001100110111001110110011111101000011010001110100101101001111010100110101011101011011010111110110001101100111011010110110111101110011011101110111101101111111100000111000011110001011100011111001001110010111100110111001111110100011101001111010101110101111101100111011011110111011101111111100001111000111110010111100111111010011110101111101101111011111111000111110011111101011111011111111001111110111111110111111110000000000000001000000100000001100000100000001010000011000000111000010000000100100001010000010110000110000001101000011100000111100010000000100010001001000010011000101000001010100010110000101110001100000011001000110100001101100011100000111010001111000011111001000000010000100100010001000110010010000100101001001100010011100101000001010010010101000101011001011000010110100101110001011110011000000110001001100100011001100110100001101010011011000110111001110000011100100111010001110110011110000111101001111100011111101000000010000010100001001000011010001000100010101000110010001110100100001001001010010100100101101001100010011010100111001001111010100000101000101010010010100110101010001010101010101100101011101011000010110010101101001011011010111000101110101011110010111110110000001100001011000100110001101100100011001010110011001100111011010000110100101101010011010110110110001101101011011100110111101110000011100010111001001110011011101000111010101110110011101110111100001111001011110100111101101111100011111010111111001111111100000001000000110000010100000111000010010000101100001101000011110001000100010011000101010001011100011001000110110001110100011111001000010010001100100101001001110010100100101011001011010010111100110001001100110011010100110111001110010011101100111101001111110100000101000011010001010100011101001001010010110100110101001111010100010101001101010101010101110101100101011011010111010101111101100001011000110110010101100111011010010110101101101101011011110111000101110011011101010111011101111001011110110111110101111111100000011000001110000101100001111000100110001011100011011000111110010001100100111001010110010111100110011001101110011101100111111010000110100011101001011010011110101001101010111010110110101111101100011011001110110101101101111011100110111011101111011011111111000001110000111100010111000111110010011100101111001101110011111101000111010011110101011101011111011001110110111101110111011111111000011110001111100101111001111110100111101011111011011110111111110001111100111111010111110111111110011111101111111101111111110000000000000000000000000000000000000000000000000000000000000000000000000000000000000000000000000000000000000000000000000000000000000000000000000000000000000000000000000000000000000000000000000000000000000000000000000000000000000000000000000000000000000000000000000000000000000000000000000000000000000000000000000000000000000000000000000000000000000000000000000000000000000000000000000000000000000000000000000000000000000000000000000000000000000000000000000000000000000000000000000000000000000000010000000000000 ?
b00000000000000000000000110111111 6#
1M#
1O#
#19
0M#
#20
b010 #
1%
b00000000000000010000001000000011000001000000010100000110000001110000100000001001000010100000101100001100000011010000111000001111000100000001000100010010000100110001010000010101000101100001011100011000000110010001101000011011000111000001110100011110000111110010000000100001001000100010001100100100001001010010011000100111001010000010100100101010001010110010110000101101001011100010111100110000001100010011001000110011001101000011010100110110001101110011100000111001001110100011101100111100001111010011111000111111 &
1M#
#21
0M#
#22
0%
15#
1M#
0O#
#23
0M#
#24
0>
05#
b01 I#
1M#
#25
0M#
#26
b0000001 H#
b00011110001101110110110000001000 J#
1M#
#27
0M#
#28
b0000010 H#
b00100111010010000111011101001100 J#
1M#
#29
0M#
#30
b0000011 H#
b00110100101100001011110010110101 J#
1M#
#31
0M#
#32
b0000100 H#
b00111001000111000000110010110011 J#
1M#
#33
0M#
#34
b0000101 H#
b01001110110110001010101001001010 J#
1M#
#35
0M#
#36
b0000110 H#
b01011011100111001100101001001111 J#
1M#
#37
0M#
#38
b0000111 H#
b01101000001011100110111111110011 J#
1M#
#39
0M#
#40
b0001000 H#
b01110100100011111000001011101110 J#
1M#
#41
0M#
#42
b0001001 H#
b01111000101001010110001101101111 J#
1M#
#43
0M#
#44
b0001010 H#
b10000100110010000111100000010100 J#
1M#
#45
0M#
#46
b0001011 H#
b10001100110001110000001000001000 J#
1M#
#47
0M#
#48
b0001100 H#
b10010000101111101111111111111010 J#
1M#
#49
0M#
#50
b0001101 H#
b10100100010100000110110011101011 J#
1M#
#51
0M#
#52
b0001110 H#
b10111110111110011010001111110111 J#
1M#
#53
0M#
#54
b0001111 H#
b11000110011100010111100011110010 J#
1M#
#55
0M#
#56
b0010000 H#
b01000010100010110011000110011011 J#
1M#
#57
0M#
#58
b0010001 H#
b01110101001111000100101010011000 J#
1M#
#59
0M#
#60
b0010010 H#
b10111101110010100000010111011010 J#
1M#
#61
0M#
#62
b0010011 H#
b11110101110000101110100110110100 J#
1M#
#63
0M#
#64
b0010100 H#
b01001001011001111101010001101110 J#
1M#
#65
0M#
#66
b0010101 H#
b01101110000001100010100000001000 J#
1M#
#67
0M#
#68
b0010110 H#
b10101010010110001001110010111111 J#
1M#
#69
0M#
#70
b0010111 H#
b11000111001110010111110011110100 J#
1M#
#71
0M#
#72
b0011000 H#
b11111000001010001100110010111011 J#
1M#
#73
0M#
#74
b0011001 H#
b00110110101010001000000100101000 J#
1M#
#75
0M#
#76
b0011010 H#
b01001100010110101010111111101001 J#
1M#
#77
0M#
#78
b0011011 H#
b10000001001110011010101111110010 J#
1M#
#79
0M#
#80
b0011100 H#
b10100010111011111000111110100111 J#
1M#
#81
0M#
#82
b0011101 H#
b10110101000100111110100000110101 J#
1M#
#83
0M#
#84
b0011110 H#
b11010100000101010100000011100010 J#
1M#
#85
0M#
#86
b0011111 H#
b11111101110110010010111110110011 J#
1M#
#87
0M#
#88
b0100000 H#
b00010010000111111111001100001101 J#
1M#
#89
0M#
#90
b0100001 H#
b10101010010101111101111111100101 J#
1M#
#91
0M#
#92
b0100010 H#
b01110101100101110100000100101110 J#
1M#
#93
0M#
#94
b0100011 H#
b10111111111111000011001011101001 J#
1M#
#95
0M#
#96
b0100100 H#
b01000001000111110000110111011100 J#
1M#
#97
0M#
#98
b0100101 H#
b01000101000001000011000111011011 J#
1M#
#99
0M#
#100
b0100110 H#
b01110111111000110100011110110010 J#
1M#
#101
0M#
#102
b0100111 H#
b11101110011010000100000001001010 J#
1M#
#103
0M#
#104
b0101000 H#
b10010011100101010011010110101101 J#
1M#
#105
0M#
#106
b0101001 H#
b11011001010110000011110000001110 J#
1M#
#107
0M#
#108
b0101010 H#
b00110011000010100110111100011010 J#
1M#
#109
0M#
#110
b0101011 H#
b00100000000100000000111010111011 J#
1M#
#111
0M#
#112
b0101100 H#
b01100010011001111011110100110000 J#
1M#
#113
0M#
#114
b0101101 H#
b11111011110001011001001001111111 J#
1M#
#115
0M#
#116
b0101110 H#
b00011011100000100000011100001111 J#
1M#
#117
0M#
#118
b0101111 H#
b11001100001010000110111110100111 J#
1M#
#119
0M#
#120
b0110000 H#
b01111010010000011101110100110100 J#
1M#
#121
0M#
#122
b0110001 H#
b01101100001011001011101000011000 J#
1M#
#123
0M#
#124
b0110010 H#
b00010010110111001100110111110010 J#
1M#
#125
0M#
#126
b0110011 H#
b00101010001011100111111100111011 J#
1M#
#127
0M#
#128
b0110100 H#
b01011010011110111100000011010001 J#
1M#
#129
0M#
#130
b0110101 H#
b10000101001110111101100000110000 J#
1M#
#131
0M#
#132
b0110110 H#
b00100111111111111101101111100100 J#
1M#
#133
0M#
#134
b0110111 H#
b01001101000011011101100011111011 J#
1M#
#135
0M#
#136
b0111000 H#
b11100000011110110011110010001111 J#
1M#
#137
0M#
#138
b0111001 H#
b10100111001111101010111101111100 J#
1M#
#139
0M#
#140
b0111010 H#
b00100111001110011010000110010110 J#
1M#
#141
0M#
#142
b0111011 H#
b01001111000111011101011100011100 J#
1M#
#143
0M#
#144
b0111100 H#
b00111010011111010010000111011100 J#
1M#
#145
0M#
#146
b0111101 H#
b00101011011101100101011101111110 J#
1M#
#147
0M#
#148
b0111110 H#
b01100101001001011010010101011010 J#
1M#
#149
0M#
#150
b0111111 H#
b11101001000110000010110110010001 J#
1M#
#151
0M#
#152
b1000000 H#
b01100110111001100101000000010001 J#
1M#
#153
0M#
#154
b01101010000010011110011001100111 8#
b10111011011001111010111010000101 9#
b00111100011011101111001101110010 :#
b10100101010011111111010100111010 ;#
b01010001000011100101001001111111 <#
b10011011000001010110100010001100 =#
b00011111100000111101100110101011 >#
b01011011111000001100110100011001 ?#
b0010000 H#
b10 I#
b11110011011110001110111101101011 J#
b00001000100100001001101011100101 K#
1M#
#155
0M#
#156
b11111100000010011000101001010000 8#
b01101010000010011110011001100111 9#
b10111011011001111010111010000101 :#
b00111100011011101111001101110010 ;#
b10011000110010001110010010100101 <#
b01010001000011100101001001111111 =#
b10011011000001010110100010001100 >#
b00011111100000111101100110101011 ?#
b0010001 H#
b00001110011011111101010010110010 J#
b01000101101101100110111101101101 K#
1M#
#157
0M#
#158
b01010100001001100100010000011111 8#
b11111100000010011000101001010000 9#
b01101010000010011110011001100111 :#
b10111011011001111010111010000101 ;#
b01001010110111101100100000100100 <#
b10011000110010001110010010100101 =#
b01010001000011100101001001111111 >#
b10011011000001010110100010001100 ?#
b0010010 H#
b01101101010111100111001111000001 J#
b11101000111011010001001110111100 K#
1M#
#159
0M#
#160
b01010110010010111000011101111101 8#
b01010100001001100100010000011111 9#
b11111100000010011000101001010000 :#
b01101010000010011110011001100111 ;#
b00101000110001100010001001000110 <#
b01001010110111101100100000100100 =#
b10011000110010001110010010100101 >#
b01010001000011100101001001111111 ?#
b0010011 H#
b00010011000101110010010000110001 J#
b10010100011100010010110100110111 K#
1M#
#161
0M#
#162
b10100111100010000101000101101000 8#
b01010110010010111000011101111101 9#
b01010100001001100100010000011111 :#
b11111100000010011000101001010000 ;#
b01111101001000010000101010011000 <#
b00101000110001100010001001000110 =#
b01001010110111101100100000100100 >#
b10011000110010001110010010100101 ?#
b0010100 H#
b10101111100011011110011101101100 J#
b11011001111011001101000000000011 K#
1M#
#163
0M#
#164
b10001001011110101011011101101111 8#
b10100111100010000101000101101000 9#
b01010110010010111000011101111101 :#
b01010100001001100100010000011111 ;#
b10101011100101110111000110111100 <#
b01111101001000010000101010011000 =#
b00101000110001100010001001000110 >#
b01001010110111101100100000100100 ?#
b0010101 H#
b11110000101010011110010010000011 J#
b00111011010010011110111110011000 K#
1M#
#165
0M#
